<?xml version="1.0" encoding="ISO-8859-1" standalone="no"?>

<svg 
     version="1.1"
     baseProfile="full"
     xmlns="http://www.w3.org/2000/svg"
     xmlns:xlink="http://www.w3.org/1999/xlink"
     xmlns:ev="http://www.w3.org/2001/xml-events"
     width="22.351819064220763cm"
     height="11.486351463557892cm"
     viewBox="0 0 1366 701"
     >
<title>

</title>
<g stroke-linejoin="miter" stroke-dashoffset="0.0000" stroke-dasharray="none" stroke-width="1.0000" stroke-miterlimit="10.000" stroke-linecap="square">
<g id="misc">
</g><!-- misc -->
<g id="layer0">
<clipPath id="clip4fbe4585-06f3-42fb-9564-7fae89b8ebc3">
  <path d="M 0.0000 0.0000 L 0.0000 703.00 L 1368.0 703.00 L 1368.0 0.0000 z"/>
</clipPath>
<g clip-path="url(#clip1)">
<g stroke-linejoin="round" stroke-width="4.5000" stroke-linecap="round" fill="none" stroke-opacity="1.0000" stroke="#000000">
  <path d="M 485.20 612.59 L 486.28 610.97 M 486.28 610.97 L 491.62 602.96 M 491.62 602.96 L 496.97 594.94 L 502.31 586.92 L 507.66 578.91 L 513.00 570.89 M 513.00 570.89 L 518.34 562.88 L 523.69 554.86 L 529.03 546.85 L 534.38 538.83 L 539.72 530.81 L 545.06 522.80 L 550.41 514.78 L 555.75 506.77 L 561.09 498.75 L 566.44 490.74 L 571.78 482.72 L 577.12 474.71 L 582.47 466.69 L 587.81 458.67 L 593.16 450.66 L 598.50 442.64 L 603.84 434.63 L 609.19 426.61 L 614.53 418.60 L 619.88 410.58 L 625.22 402.56 L 630.56 394.55 L 635.91 386.53 L 641.25 378.52 L 646.59 370.50 L 651.94 362.49 L 657.28 354.47 L 662.62 346.46 L 667.97 338.44 L 673.31 330.42 L 678.66 322.41 L 684.00 314.39 M 684.00 314.39 L 689.34 306.38 L 694.69 298.36 L 700.03 290.35 L 705.38 282.33 L 710.72 274.31 L 716.06 266.30 L 721.41 258.28 L 726.75 250.27 L 732.09 242.25 L 737.44 234.24 L 742.78 226.22 L 748.12 218.21 L 753.47 210.19 L 758.81 202.17 L 764.16 194.16 L 769.50 186.14 M 769.50 186.14 L 774.84 178.13 L 780.19 170.11 L 785.53 162.10 L 790.88 154.08 L 796.22 146.06 L 801.56 138.05 L 806.91 130.03 L 812.25 122.02 M 812.25 122.02 L 817.59 114.00 L 822.94 105.99 L 828.28 97.971 L 833.62 89.956 M 833.62 89.956 L 838.97 81.940 L 844.31 73.924 M 844.31 73.924 L 849.66 65.909 M 849.66 65.909 L 852.42 61.766"/>
<title>Function f</title>
<desc>f(x) = If(-2 ≤ x ≤ 10, 3 / 2 x + 0.54)</desc>

</g> <!-- drawing style -->
</g> <!-- clip1 -->
<clipPath id="clipcae22292-c365-488f-81b9-125d727e0b3f">
  <path d="M 0.0000 0.0000 L 0.0000 703.00 L 1368.0 703.00 L 1368.0 0.0000 z"/>
</clipPath>
<g clip-path="url(#clip2)">
<g stroke-linejoin="round" stroke-width="4.5000" stroke-linecap="round" fill="none" stroke-opacity="1.0000" stroke="#000000">
  <path d="M 546.40 659.72 L 546.40 74.689"/>
<title>Vector u</title>
<desc>Vector u: Vector(T, U)</desc>

</g> <!-- drawing style -->
</g> <!-- clip2 -->
<clipPath id="clip291aeb9a-7bba-4316-b4f9-c80b70684243">
  <path d="M 0.0000 0.0000 L 0.0000 703.00 L 1368.0 703.00 L 1368.0 0.0000 z"/>
</clipPath>
<g clip-path="url(#clip3)">
<g fill-opacity="1.0000" fill-rule="evenodd" stroke="none" fill="#000000">
  <path d="M 546.40 47.689 L 553.15 74.689 L 539.65 74.689 z"/>
<title>Vector u</title>
<desc>Vector u: Vector(T, U)</desc>

</g> <!-- drawing style -->
</g> <!-- clip3 -->
<clipPath id="clipc5a0dcae-6eb3-476f-b93e-996a39c209e4">
  <path d="M 0.0000 0.0000 L 0.0000 703.00 L 1368.0 703.00 L 1368.0 0.0000 z"/>
</clipPath>
<g clip-path="url(#clip4)">
<g stroke-linejoin="round" stroke-width="4.5000" stroke-linecap="round" fill="none" stroke-opacity="1.0000" stroke="#000000">
  <path d="M 424.00 537.31 L 947.82 537.31"/>
<title>Vector v</title>
<desc>Vector v: Vector(V, W)</desc>

</g> <!-- drawing style -->
</g> <!-- clip4 -->
<clipPath id="clip19271ccb-ad31-433d-b8d9-9dc2b777d247">
  <path d="M 0.0000 0.0000 L 0.0000 703.00 L 1368.0 703.00 L 1368.0 0.0000 z"/>
</clipPath>
<g clip-path="url(#clip5)">
<g fill-opacity="1.0000" fill-rule="evenodd" stroke="none" fill="#000000">
  <path d="M 974.82 537.31 L 947.82 544.06 L 947.82 530.56 z"/>
<title>Vector v</title>
<desc>Vector v: Vector(V, W)</desc>

</g> <!-- drawing style -->
</g> <!-- clip5 -->
<clipPath id="clipc22f4ecc-07eb-41dc-915f-ed49b3e9f489">
  <path d="M 0.0000 0.0000 L 0.0000 703.00 L 1368.0 703.00 L 1368.0 0.0000 z"/>
</clipPath>
<g clip-path="url(#clip6)">
<g fill-opacity="1.0000" fill-rule="nonzero" stroke="none" fill="#4d4dff">
  <path d="M 497.82 597.82 C 497.82 602.24 494.24 605.82 489.82 605.82 C 485.40 605.82 481.82 602.24 481.82 597.82 C 481.82 593.40 485.40 589.82 489.82 589.82 C 494.24 589.82 497.82 593.40 497.82 597.82 z"/>
<title>Point A</title>
<desc>A = (-1.85, -1.98)</desc>

</g> <!-- drawing style -->
</g> <!-- clip6 -->
<clipPath id="clip2e2ea4d8-41f8-4586-8be3-09c9da403b8d">
  <path d="M 0.0000 0.0000 L 0.0000 703.00 L 1368.0 703.00 L 1368.0 0.0000 z"/>
</clipPath>
<g clip-path="url(#clip7)">
<g stroke-linejoin="round" stroke-linecap="round" fill="none" stroke-opacity="1.0000" stroke="#000000">
  <path d="M 497.82 597.82 C 497.82 602.24 494.24 605.82 489.82 605.82 C 485.40 605.82 481.82 602.24 481.82 597.82 C 481.82 593.40 485.40 589.82 489.82 589.82 C 494.24 589.82 497.82 593.40 497.82 597.82 z"/>
<title>Point A</title>
<desc>A = (-1.85, -1.98)</desc>

</g> <!-- drawing style -->
</g> <!-- clip7 -->
<clipPath id="clipf388d01e-b039-4fc6-8c7f-b738a125ba06">
  <path d="M 0.0000 0.0000 L 0.0000 703.00 L 1368.0 703.00 L 1368.0 0.0000 z"/>
</clipPath>
<g clip-path="url(#clip8)">
<g fill-opacity="1.0000" fill-rule="nonzero" stroke="none" fill="#4d4dff">
  <path d="M 555.09 517.82 C 555.09 522.24 551.51 525.82 547.09 525.82 C 542.67 525.82 539.09 522.24 539.09 517.82 C 539.09 513.40 542.67 509.82 547.09 509.82 C 551.51 509.82 555.09 513.40 555.09 517.82 z"/>
<title>Point B</title>
<desc>B = (0.02, 0.64)</desc>

</g> <!-- drawing style -->
</g> <!-- clip8 -->
<clipPath id="clipa08d8f92-4dca-4edd-aade-cf0336f55b7a">
  <path d="M 0.0000 0.0000 L 0.0000 703.00 L 1368.0 703.00 L 1368.0 0.0000 z"/>
</clipPath>
<g clip-path="url(#clip9)">
<g stroke-linejoin="round" stroke-linecap="round" fill="none" stroke-opacity="1.0000" stroke="#000000">
  <path d="M 555.09 517.82 C 555.09 522.24 551.51 525.82 547.09 525.82 C 542.67 525.82 539.09 522.24 539.09 517.82 C 539.09 513.40 542.67 509.82 547.09 509.82 C 551.51 509.82 555.09 513.40 555.09 517.82 z"/>
<title>Point B</title>
<desc>B = (0.02, 0.64)</desc>

</g> <!-- drawing style -->
</g> <!-- clip9 -->
<clipPath id="clipae9f42ca-84c5-4f82-96f0-a5e55fc2e374">
  <path d="M 0.0000 0.0000 L 0.0000 703.00 L 1368.0 703.00 L 1368.0 0.0000 z"/>
</clipPath>
<g clip-path="url(#clip10)">
<g fill-opacity="1.0000" fill-rule="nonzero" stroke="none" fill="#4d4dff">
  <path d="M 605.09 434.18 C 605.09 438.60 601.51 442.18 597.09 442.18 C 592.67 442.18 589.09 438.60 589.09 434.18 C 589.09 429.76 592.67 426.18 597.09 426.18 C 601.51 426.18 605.09 429.76 605.09 434.18 z"/>
<title>Point C</title>
<desc>C = (1.66, 3.37)</desc>

</g> <!-- drawing style -->
</g> <!-- clip10 -->
<clipPath id="clipf430c456-e8b1-42b6-abc6-d57cf5257559">
  <path d="M 0.0000 0.0000 L 0.0000 703.00 L 1368.0 703.00 L 1368.0 0.0000 z"/>
</clipPath>
<g clip-path="url(#clip11)">
<g stroke-linejoin="round" stroke-linecap="round" fill="none" stroke-opacity="1.0000" stroke="#000000">
  <path d="M 605.09 434.18 C 605.09 438.60 601.51 442.18 597.09 442.18 C 592.67 442.18 589.09 438.60 589.09 434.18 C 589.09 429.76 592.67 426.18 597.09 426.18 C 601.51 426.18 605.09 429.76 605.09 434.18 z"/>
<title>Point C</title>
<desc>C = (1.66, 3.37)</desc>

</g> <!-- drawing style -->
</g> <!-- clip11 -->
<clipPath id="clip5373cea3-2508-4345-b27e-d079f683ff91">
  <path d="M 0.0000 0.0000 L 0.0000 703.00 L 1368.0 703.00 L 1368.0 0.0000 z"/>
</clipPath>
<g clip-path="url(#clip12)">
<g fill-opacity="1.0000" fill-rule="nonzero" stroke="none" fill="#4d4dff">
  <path d="M 706.91 290.55 C 706.91 294.96 703.33 298.55 698.91 298.55 C 694.49 298.55 690.91 294.96 690.91 290.55 C 690.91 286.13 694.49 282.55 698.91 282.55 C 703.33 282.55 706.91 286.13 706.91 290.55 z"/>
<title>Point D</title>
<desc>D = (4.98, 8.06)</desc>

</g> <!-- drawing style -->
</g> <!-- clip12 -->
<clipPath id="clip368b8ff3-28ec-475a-9817-8fc3f142b536">
  <path d="M 0.0000 0.0000 L 0.0000 703.00 L 1368.0 703.00 L 1368.0 0.0000 z"/>
</clipPath>
<g clip-path="url(#clip13)">
<g stroke-linejoin="round" stroke-linecap="round" fill="none" stroke-opacity="1.0000" stroke="#000000">
  <path d="M 706.91 290.55 C 706.91 294.96 703.33 298.55 698.91 298.55 C 694.49 298.55 690.91 294.96 690.91 290.55 C 690.91 286.13 694.49 282.55 698.91 282.55 C 703.33 282.55 706.91 286.13 706.91 290.55 z"/>
<title>Point D</title>
<desc>D = (4.98, 8.06)</desc>

</g> <!-- drawing style -->
</g> <!-- clip13 -->
<clipPath id="clipc1a2ddf0-8638-4dac-8810-18d3466f40d8">
  <path d="M 0.0000 0.0000 L 0.0000 703.00 L 1368.0 703.00 L 1368.0 0.0000 z"/>
</clipPath>
<g clip-path="url(#clip14)">
<g fill-opacity="1.0000" fill-rule="nonzero" stroke="none" fill="#4d4dff">
  <path d="M 855.09 72.364 C 855.09 76.782 851.51 80.364 847.09 80.364 C 842.67 80.364 839.09 76.782 839.09 72.364 C 839.09 67.945 842.67 64.364 847.09 64.364 C 851.51 64.364 855.09 67.945 855.09 72.364 z"/>
<title>Point E</title>
<desc>E = (9.83, 15.19)</desc>

</g> <!-- drawing style -->
</g> <!-- clip14 -->
<clipPath id="clip7423a2ca-8421-4a65-862d-528ebaba282c">
  <path d="M 0.0000 0.0000 L 0.0000 703.00 L 1368.0 703.00 L 1368.0 0.0000 z"/>
</clipPath>
<g clip-path="url(#clip15)">
<g stroke-linejoin="round" stroke-linecap="round" fill="none" stroke-opacity="1.0000" stroke="#000000">
  <path d="M 855.09 72.364 C 855.09 76.782 851.51 80.364 847.09 80.364 C 842.67 80.364 839.09 76.782 839.09 72.364 C 839.09 67.945 842.67 64.364 847.09 64.364 C 851.51 64.364 855.09 67.945 855.09 72.364 z"/>
<title>Point E</title>
<desc>E = (9.83, 15.19)</desc>

</g> <!-- drawing style -->
</g> <!-- clip15 -->
<clipPath id="clip060cee7f-082a-47d5-bd47-28a9a7634873">
  <path d="M 0.0000 0.0000 L 0.0000 703.00 L 1368.0 703.00 L 1368.0 0.0000 z"/>
</clipPath>
<g clip-path="url(#clip16)">
<g fill-opacity="1.0000" fill-rule="nonzero" stroke="none" fill="#4d4dff">
  <path d="M 809.64 132.36 C 809.64 136.78 806.05 140.36 801.64 140.36 C 797.22 140.36 793.64 136.78 793.64 132.36 C 793.64 127.95 797.22 124.36 801.64 124.36 C 806.05 124.36 809.64 127.95 809.64 132.36 z"/>
<title>Point F</title>
<desc>F = (8.34, 13.23)</desc>

</g> <!-- drawing style -->
</g> <!-- clip16 -->
<clipPath id="clipf5b2f86c-4488-4a44-92b3-c506edfeaab8">
  <path d="M 0.0000 0.0000 L 0.0000 703.00 L 1368.0 703.00 L 1368.0 0.0000 z"/>
</clipPath>
<g clip-path="url(#clip17)">
<g stroke-linejoin="round" stroke-linecap="round" fill="none" stroke-opacity="1.0000" stroke="#000000">
  <path d="M 809.64 132.36 C 809.64 136.78 806.05 140.36 801.64 140.36 C 797.22 140.36 793.64 136.78 793.64 132.36 C 793.64 127.95 797.22 124.36 801.64 124.36 C 806.05 124.36 809.64 127.95 809.64 132.36 z"/>
<title>Point F</title>
<desc>F = (8.34, 13.23)</desc>

</g> <!-- drawing style -->
</g> <!-- clip17 -->
<clipPath id="clip7bd126e9-21a1-4620-9ad7-4d3ac1ef8d38">
  <path d="M 0.0000 0.0000 L 0.0000 703.00 L 1368.0 703.00 L 1368.0 0.0000 z"/>
</clipPath>
<g clip-path="url(#clip18)">
<g fill-opacity="1.0000" fill-rule="nonzero" stroke="none" fill="#4d4dff">
  <path d="M 780.55 190.55 C 780.55 194.96 776.96 198.55 772.55 198.55 C 768.13 198.55 764.55 194.96 764.55 190.55 C 764.55 186.13 768.13 182.55 772.55 182.55 C 776.96 182.55 780.55 186.13 780.55 190.55 z"/>
<title>Point G</title>
<desc>G = (7.39, 11.33)</desc>

</g> <!-- drawing style -->
</g> <!-- clip18 -->
<clipPath id="clip8da8384c-8977-4716-9599-879d97456fdc">
  <path d="M 0.0000 0.0000 L 0.0000 703.00 L 1368.0 703.00 L 1368.0 0.0000 z"/>
</clipPath>
<g clip-path="url(#clip19)">
<g stroke-linejoin="round" stroke-linecap="round" fill="none" stroke-opacity="1.0000" stroke="#000000">
  <path d="M 780.55 190.55 C 780.55 194.96 776.96 198.55 772.55 198.55 C 768.13 198.55 764.55 194.96 764.55 190.55 C 764.55 186.13 768.13 182.55 772.55 182.55 C 776.96 182.55 780.55 186.13 780.55 190.55 z"/>
<title>Point G</title>
<desc>G = (7.39, 11.33)</desc>

</g> <!-- drawing style -->
</g> <!-- clip19 -->
<clipPath id="clip02d81407-8c2e-46ef-9922-1b827716a423">
  <path d="M 0.0000 0.0000 L 0.0000 703.00 L 1368.0 703.00 L 1368.0 0.0000 z"/>
</clipPath>
<g clip-path="url(#clip20)">
<g fill-opacity="1.0000" fill-rule="nonzero" stroke="none" fill="#4d4dff">
  <path d="M 746.00 244.18 C 746.00 248.60 742.42 252.18 738.00 252.18 C 733.58 252.18 730.00 248.60 730.00 244.18 C 730.00 239.76 733.58 236.18 738.00 236.18 C 742.42 236.18 746.00 239.76 746.00 244.18 z"/>
<title>Point H</title>
<desc>H = (6.26, 9.58)</desc>

</g> <!-- drawing style -->
</g> <!-- clip20 -->
<clipPath id="clipb1434b28-fb3e-4b0b-87c2-fff5246fbfb4">
  <path d="M 0.0000 0.0000 L 0.0000 703.00 L 1368.0 703.00 L 1368.0 0.0000 z"/>
</clipPath>
<g clip-path="url(#clip21)">
<g stroke-linejoin="round" stroke-linecap="round" fill="none" stroke-opacity="1.0000" stroke="#000000">
  <path d="M 746.00 244.18 C 746.00 248.60 742.42 252.18 738.00 252.18 C 733.58 252.18 730.00 248.60 730.00 244.18 C 730.00 239.76 733.58 236.18 738.00 236.18 C 742.42 236.18 746.00 239.76 746.00 244.18 z"/>
<title>Point H</title>
<desc>H = (6.26, 9.58)</desc>

</g> <!-- drawing style -->
</g> <!-- clip21 -->
<clipPath id="clip5c8383e9-fb59-43c7-a06a-d387035fbdec">
  <path d="M 0.0000 0.0000 L 0.0000 703.00 L 1368.0 703.00 L 1368.0 0.0000 z"/>
</clipPath>
<g clip-path="url(#clip22)">
<g fill-opacity="1.0000" fill-rule="nonzero" stroke="none" fill="#4d4dff">
  <path d="M 659.64 369.64 C 659.64 374.05 656.05 377.64 651.64 377.64 C 647.22 377.64 643.64 374.05 643.64 369.64 C 643.64 365.22 647.22 361.64 651.64 361.64 C 656.05 361.64 659.64 365.22 659.64 369.64 z"/>
<title>Point I</title>
<desc>I = (3.44, 5.48)</desc>

</g> <!-- drawing style -->
</g> <!-- clip22 -->
<clipPath id="clip6b2bd70f-b810-4e45-a2bb-7577bbb25ad4">
  <path d="M 0.0000 0.0000 L 0.0000 703.00 L 1368.0 703.00 L 1368.0 0.0000 z"/>
</clipPath>
<g clip-path="url(#clip23)">
<g stroke-linejoin="round" stroke-linecap="round" fill="none" stroke-opacity="1.0000" stroke="#000000">
  <path d="M 659.64 369.64 C 659.64 374.05 656.05 377.64 651.64 377.64 C 647.22 377.64 643.64 374.05 643.64 369.64 C 643.64 365.22 647.22 361.64 651.64 361.64 C 656.05 361.64 659.64 365.22 659.64 369.64 z"/>
<title>Point I</title>
<desc>I = (3.44, 5.48)</desc>

</g> <!-- drawing style -->
</g> <!-- clip23 -->
<clipPath id="clipda9ce5c9-bad8-4926-8cd6-0530a315514a">
  <path d="M 0.0000 0.0000 L 0.0000 703.00 L 1368.0 703.00 L 1368.0 0.0000 z"/>
</clipPath>
<g clip-path="url(#clip24)">
<g fill-opacity="1.0000" fill-rule="nonzero" stroke="none" fill="#4d4dff">
  <path d="M 534.18 557.82 C 534.18 562.24 530.60 565.82 526.18 565.82 C 521.76 565.82 518.18 562.24 518.18 557.82 C 518.18 553.40 521.76 549.82 526.18 549.82 C 530.60 549.82 534.18 553.40 534.18 557.82 z"/>
<title>Point J</title>
<desc>J = (-0.66, -0.67)</desc>

</g> <!-- drawing style -->
</g> <!-- clip24 -->
<clipPath id="clipcfe1d6f9-b513-4adf-a1c0-7631015805e6">
  <path d="M 0.0000 0.0000 L 0.0000 703.00 L 1368.0 703.00 L 1368.0 0.0000 z"/>
</clipPath>
<g clip-path="url(#clip25)">
<g stroke-linejoin="round" stroke-linecap="round" fill="none" stroke-opacity="1.0000" stroke="#000000">
  <path d="M 534.18 557.82 C 534.18 562.24 530.60 565.82 526.18 565.82 C 521.76 565.82 518.18 562.24 518.18 557.82 C 518.18 553.40 521.76 549.82 526.18 549.82 C 530.60 549.82 534.18 553.40 534.18 557.82 z"/>
<title>Point J</title>
<desc>J = (-0.66, -0.67)</desc>

</g> <!-- drawing style -->
</g> <!-- clip25 -->
<g transform="matrix(.27000, 0.0000, 0.0000, .27000, 518.00, 72.000)">
<clipPath id="clip3bf1f7ec-0fe1-4bf2-af9c-dc88aa94ee7c">
  <path d="M -1918.5 -266.67 L -1918.5 2337.0 L 3148.1 2337.0 L 3148.1 -266.67 z"/>
</clipPath>
<g clip-path="url(#clip26)">
<g fill-opacity="1.0000" fill-rule="nonzero" stroke="none" fill="#000000">
  <path d="M 57.703 -37.703 L 48.297 .093750 Q 46.094 9.0000 37.844 14.602 Q 29.594 20.203 20.500 20.203 Q 14.500 20.203 10.797 17.805 Q 7.0938 15.406 7.0938 11.500 Q 7.0938 8.2969 9.2500 6.1016 Q 11.406 3.9062 14.297 3.9062 Q 16.203 3.9062 17.703 5.0000 Q 19.203 6.0938 19.203 8.5000 Q 19.203 13.203 14.406 15.203 Q 16.703 16.594 20.500 16.594 Q 26.000 16.594 30.852 11.594 Q 35.703 6.5938 37.703 -2.2031 Q 33.406 .79688 28.094 .79688 Q 25.406 .79688 23.055 .35156 Q 20.703 -.093750 18.055 -1.3438 Q 15.406 -2.5938 13.805 -5.3984 Q 12.203 -8.2031 12.203 -12.203 Q 12.203 -15.703 13.555 -20.055 Q 14.906 -24.406 18.203 -33.000 Q 19.906 -37.500 19.906 -39.500 Q 19.906 -40.500 19.602 -41.000 Q 19.297 -41.500 19.000 -41.547 Q 18.703 -41.594 18.203 -41.594 Q 17.406 -41.594 16.352 -41.195 Q 15.297 -40.797 13.750 -39.750 Q 12.203 -38.703 10.602 -36.055 Q 9.0000 -33.406 7.9062 -29.500 Q 7.5000 -28.203 5.5938 -28.203 Q 3.2031 -28.203 3.2031 -29.594 Q 3.2031 -30.594 4.2031 -32.945 Q 5.2031 -35.297 7.0000 -38.148 Q 8.7969 -41.000 11.945 -43.102 Q 15.094 -45.203 18.797 -45.203 Q 23.297 -45.203 26.695 -42.750 Q 30.094 -40.297 30.094 -36.203 Q 30.094 -34.594 28.797 -31.203 Q 22.906 -16.000 22.906 -10.094 Q 22.906 -2.7969 28.906 -2.7969 Q 31.906 -2.7969 35.703 -5.2031 Q 36.000 -5.4062 36.750 -6.0000 Q 37.500 -6.5938 38.453 -7.7969 Q 39.406 -9.0000 39.594 -10.000 Q 40.297 -12.703 43.797 -26.594 L 46.406 -37.000 Q 46.797 -38.500 47.102 -39.398 Q 47.406 -40.297 48.203 -41.648 Q 49.000 -43.000 50.352 -43.703 Q 51.703 -44.406 53.500 -44.406 Q 55.703 -44.406 56.953 -43.102 Q 58.203 -41.797 58.203 -40.000 Q 58.203 -39.500 57.703 -37.703 z"/>
<title>y</title>
<desc>text1 = “y”</desc>

</g> <!-- drawing style -->
</g> <!-- clip26 -->
</g> <!-- transform -->
<g transform="matrix(.27000, 0.0000, 0.0000, .27000, 953.00, 564.00)">
<clipPath id="clip93c6f7f7-6104-4f48-8b1f-a65d91e4837b">
  <path d="M -3529.6 -2088.9 L -3529.6 514.81 L 1537.0 514.81 L 1537.0 -2088.9 z"/>
</clipPath>
<g clip-path="url(#clip27)">
<g fill-opacity="1.0000" fill-rule="nonzero" stroke="none" fill="#000000">
  <path d="M 53.594 -40.094 Q 51.594 -41.594 48.797 -41.594 Q 46.094 -41.594 43.750 -39.195 Q 41.406 -36.797 40.297 -32.500 Q 40.000 -31.594 38.500 -25.695 Q 37.000 -19.797 36.797 -18.906 Q 34.594 -9.9062 34.594 -7.7969 Q 34.594 -2.7969 40.203 -2.7969 Q 44.000 -2.7969 48.203 -5.7500 Q 52.406 -8.7031 54.406 -14.906 Q 54.797 -16.203 56.703 -16.203 Q 59.094 -16.203 59.094 -14.805 Q 59.094 -13.406 57.797 -10.953 Q 56.500 -8.5000 54.203 -5.7969 Q 51.906 -3.0938 48.000 -1.1484 Q 44.094 .79688 39.703 .79688 Q 29.500 .79688 25.906 -5.2969 Q 21.500 .79688 15.203 .79688 Q 10.500 .79688 7.1484 -1.6484 Q 3.7969 -4.0938 3.7969 -8.0000 Q 3.7969 -11.500 6.0000 -13.648 Q 8.2031 -15.797 11.000 -15.797 Q 13.297 -15.797 14.648 -14.398 Q 16.000 -13.000 16.000 -11.203 Q 16.000 -9.0938 14.547 -7.0469 Q 13.094 -5.0000 10.594 -4.2969 Q 12.594 -2.7969 15.406 -2.7969 Q 18.094 -2.7969 20.445 -5.1484 Q 22.797 -7.5000 23.906 -11.906 L 27.297 -25.594 Q 29.594 -34.797 29.594 -36.594 Q 29.594 -41.594 24.000 -41.594 Q 20.203 -41.594 16.000 -38.648 Q 11.797 -35.703 9.7969 -29.500 Q 9.4062 -28.203 7.5000 -28.203 Q 5.0938 -28.203 5.0938 -29.602 Q 5.0938 -31.000 6.3984 -33.453 Q 7.7031 -35.906 10.000 -38.602 Q 12.297 -41.297 16.195 -43.250 Q 20.094 -45.203 24.500 -45.203 Q 34.703 -45.203 38.297 -39.094 Q 42.703 -45.203 49.000 -45.203 Q 53.703 -45.203 57.055 -42.750 Q 60.406 -40.297 60.406 -36.406 Q 60.406 -32.906 58.203 -30.750 Q 56.000 -28.594 53.203 -28.594 Q 50.906 -28.594 49.555 -30.000 Q 48.203 -31.406 48.203 -33.203 Q 48.203 -35.297 49.648 -37.352 Q 51.094 -39.406 53.594 -40.094 z"/>
<title>x</title>
<desc>text2 = “x”</desc>

</g> <!-- drawing style -->
</g> <!-- clip27 -->
</g> <!-- transform -->
</g><!-- layer0 -->
</g> <!-- default stroke -->
</svg> <!-- bounding box -->
